{
  "slides": [
    {
      "title": "Discover the right <br/> <span>gym equipment</span> for you",
      "subtitle": "New year's eve celebration 2021",
      "button_text": "SHOP NOW",
      "image": "/assets/banner.jpg",
      "mobile_image": "/assets/banner-mobile.jpg",
      "link": "/women/women-20"
    },
    {
      "title": "Luma Fitness",
      "subtitle": "Collection",
      "button_text": "Shop now",
      "image": "/assets/banner.jpg",
      "mobile_image": "/assets/banner-mobile.jpg",
      "link": "/men/men-11"
    },
    {
      "title": "Luma Fitness",
      "subtitle": "What's new",
      "button_text": "Shop now",
      "image": "/assets/banner.jpg",
      "mobile_image": "/assets/banner-mobile.jpg",
      "link": "/training/training-9"
    }
  ],
  "total": "3"
}