<svg width="52" height="27" viewBox="0 0 52 27" fill="none" xmlns="http://www.w3.org/2000/svg">
<path d="M8.82764 5.67686V1.38374C8.82764 1.17181 8.99977 1 9.21211 1H34.2268C34.8638 1 35.3802 1.51542 35.3802 2.15123V20.1152C35.3802 20.751 34.8638 21.2664 34.2268 21.2664H9.98105C9.34404 21.2664 8.82764 20.751 8.82764 20.1152V16.5895" stroke="#3C967B" stroke-width="2" stroke-linecap="round"/>
<path d="M1 13.5152L15.078 13.4717" stroke="#3C967B" stroke-width="2" stroke-linecap="round"/>
<path d="M5.70459 8.83844L19.7826 8.79492" stroke="#3C967B" stroke-width="2" stroke-linecap="round"/>
<path d="M19.7607 25.9431C22.3486 25.9431 24.4465 23.8492 24.4465 21.2662C24.4465 18.6833 22.3486 16.5894 19.7607 16.5894C17.1728 16.5894 15.075 18.6833 15.075 21.2662C15.075 23.8492 17.1728 25.9431 19.7607 25.9431Z" fill="#EDEDED" stroke="#3C967B" stroke-width="2" stroke-linecap="round"/>
<path fill-rule="evenodd" clip-rule="evenodd" d="M36.5343 4.11768H45.6014C46.0383 4.11768 46.4377 4.36404 46.6331 4.75406L51 13.4714V20.1149C51 20.7507 50.4836 21.2661 49.8466 21.2661H36.5343C35.8973 21.2661 35.3809 20.7507 35.3809 20.1149V5.2689C35.3809 4.6331 35.8973 4.11768 36.5343 4.11768Z" stroke="#3C967B" stroke-width="2" stroke-linecap="round"/>
<path d="M43.1909 25.9431C45.7787 25.9431 47.8766 23.8492 47.8766 21.2662C47.8766 18.6833 45.7787 16.5894 43.1909 16.5894C40.603 16.5894 38.5051 18.6833 38.5051 21.2662C38.5051 23.8492 40.603 25.9431 43.1909 25.9431Z" fill="#EDEDED" stroke="#3C967B" stroke-width="2" stroke-linecap="round"/>
<path d="M41.6282 7.23584V11.9127H46.3139" stroke="#3C967B" stroke-width="2" stroke-linecap="round"/>
</svg>
